ID~AID~QID~Prompt~Model Answer~Student Answer~MyScore~MyScore2~Feedback~Feedback_Notes~Score
4.6~4~6~ Using an index outside the bounds of the array generates an error.  Is this a compilation error or a run-time error? ~ Run-time error. ~ run-time error ~5~5~correct_complete~~5
1.5~1~5~ What is a variable? ~ A location in memory that can store a value. ~" It is a sybol or name for a value or number.  Example: ""a used number"" can stand for any given number, and the programmer can refer to that number by using the variable name. "~2~2~wrong_related~~4
11.4~11~4~ What is a function signature? ~ The name of the function and the list of parameters, including their types. ~ The parameters needed, the return type, and name of the function. ~4~4~partially_correct~partially_missed_concept,not_enough_info~5
9.7~9~7~ What data structure is more appropriate for scheduling printing jobs at a printer, a stack or a queue? ~ queue ~ Queue 's are more appropriate, as printers are usually first come, first serve. ~5~5~correct_complete~~5
11.6~11~6~ What is the alternative way to solve a problem that could be solved through recursive functions? ~ Through iteration. ~ One can use iteration or by using a simple while or for loop. ~5~5~correct_complete~~5
11.5~11~5~ What is a recursive function? ~ A function that calls itself. ~ A function that calls itself.  With each function call the problem is diminished. ~5~5~correct_complete~~5
2.1~2~1~ What is typically included in a class definition? ~ Data members -LRB- attributes -RRB- and member functions. ~ class variables, function definitions for the class ~4~3~partially_correct~missed_concept,other_wording~5
6.6~6~6~ What are the different ways to pass a pointer to a function? ~ There are four ways: nonconstant pointer to constant data, nonconstant pointer to nonconstant data, constant pointer to constant data, constant pointer to nonconstant data. ~ By argument and reference. ~3~2~partially_correct~missed_concept~2
2.1~2~1~ What is typically included in a class definition? ~ Data members -LRB- attributes -RRB- and member functions. ~ It is specific class name, includes only information defined by that class ... implementation details ... etc. ~3~0~partially_correct~missed_concept,extra_info~3
11.1~11~1~ What are the elements typically included in a class definition? ~ Function members and data members. ~ Constructor, functions, and variables native to the class. ~5~4~correct_complete~other_wording~4
2.7~2~7~ What is the role of a header-file? ~ To store a class interface, including data members and member function prototypes. ~ class definitions are placed here ~4~3~partially_correct~partially_missed_concept~3
3.4~3~4~ What is the main advantage associated with function arguments that are passed by reference? ~ It avoids making copies of large data structures when calling functions. ~ You do not alter the original value of the variable that was passed. ~2~0~wrong_related~missed_concept~3
12.7~12~7~ What are the main operations associated with a stack? ~ push and pop ~ push and pop ~5~5~correct_complete~~5
7.1~7~1~ What is a linked list? ~ A collection of elements that can be allocated dynamically. ~" A data structure in a sequence of nodes, each containing arbitrary data fields and one or two references -LRB- ""links""  -RRB- pointing to the next and previous nodes. "~5~5~correct_complete~~4.5
3.7~3~7~ What are the similarities between iteration and recursion? ~ They both involve repetition; they both have termination tests; they can both occur infinitely. ~ They both use repetition, a control or test to terminate, and both can infinitely repeat if not defined correctly. ~5~5~correct_complete~~5
9.2~9~2~ What are the two main functions defined by a queue? ~ enqueue and dequeue ~ The two main functions are enqueue which inserts an item at the back of the queue and dequeue which removes an item from the front of the queue. ~5~5~correct_complete~~5
6.3~6~3~ What does the star -LRB- STAR -RRB- operator return? ~ An alias -LRB- synonym -RRB- for the name of the object that its operand points to in memory.  It is the dereferencing operator. ~ The value of the object that the operand points to ~5~5~correct_complete~~4.5
10.7~10~7~ How many comparisons does it take to find an element in a binary search tree? ~ The height of the tree -LRB- or log of the number of elements in the tree -RRB- . ~ At most its equivalent to the height of the tree. ~5~5~correct_complete~~5
5.4~5~4~ What is the base case for a recursive implementation of merge sort? ~ When the size of the array to be sorted is 1 -LRB- or 2 -RRB- ~ O -LRB- nlog -LRB- n -RRB- -RRB- ~0~0~wrong_unrelated~question_misinterpretation~2
12.8~12~8~ What is the Euler tour traversal of a tree? ~ A walk around the tree, starting with the root, where each node is seen three times: from the left, from below, from the right. ~ The Euler tour traverses through the tree in a rubber-band style shape. ~0~0~wrong_related~missed_concept~3.5
3.7~3~7~ What are the similarities between iteration and recursion? ~ They both involve repetition; they both have termination tests; they can both occur infinitely. ~ As discussed earlier, recursion may be used to process iterative actions.  Recursion is used for calculations where the answer can be described in a function that relates to itself. ~1~1~wrong_related~missed_concept,extra_info~2
8.2~8~2~ What are the two main functions defined by a stack? ~ push and pop ~ push and pop. ~5~0~correct_complete~~5
4.1~4~1~ What are the two different ways of specifying the length of an array? ~ In the array declaration, or by using an initializer list. ~ Explicitly int array [10]; or by variable const int size equals 10; int array [size]; ~3~2~partially_correct~missed_concept,contains_false_assertion~4
12.4~12~4~ Briefly, how does selection sort work? ~ It selects the minimum from an array and places it on the first position, then it selects the minimum from the rest of the array and places it on the second position, and so forth. ~ pick a number, and set all values less than that number to the left, while all numbers on the right of that number is larger. ~0~0~wrong_related~missed_concept~3
9.4~9~4~ How can you implement a queue with a list? ~ Keep the rear of the queue pointing to the tail of the linked list, so the enqueue operation is done at the end of the list, and keep the front of the queue pointing to the head of the linked list, so the dequeue operation is done at the beginning of the list. ~ throw in data at the head and take it out at the tail ~3~3~partially_correct~not_enough_info~4.5
8.3~8~3~ How can you implement a stack with an array? ~ Keep the top of the stack toward the end of the array, so the push and pop operations will add or remove elements from the right side of the array. ~ Allocate an array of some pre-defined size.  Bottom stack element stored at element 0. The last index in the array is the top.  Increment top when one element is pushed. ~3~0~partially_correct~contains_false_assertion~4.5
8.6~8~6~ How are infix expressions evaluated by computers? ~ First, they are converted into postfix form, followed by an evaluation of the postfix expression. ~ The computer converts the infix expression to postfix form.  Then evaluates the postfix expression. ~5~5~correct_complete~~5
6.7~6~7~ What is a function pointer? ~ The address of the location in memory where the function code resides. ~ a function pointer is a pointer to a function.  It can be used in substitution for calling a function. ~4~2~partially_correct~~5
6.6~6~6~ What are the different ways to pass a pointer to a function? ~ There are four ways: nonconstant pointer to constant data, nonconstant pointer to nonconstant data, constant pointer to constant data, constant pointer to nonconstant data. ~ nonconstant pointer to nonconstant data nonconstant pointer to constant data constant pointer to nonconstant data constant pointer to constant data ~5~5~correct_complete~~5
1.6~1~6~ Where are variables declared in a C plus plus program? ~ Variables can be declared anywhere in a program.  They can be declared inside a function -LRB- local variables -RRB- or outside the functions -LRB- global variables -RRB- ~ After declaration of the variable 's data type. ~2~0~partially_correct~question_misinterpretation~1
10.4~10~4~ What is a binary tree? ~ A tree for which the maximum number of children per node is two. ~ A set of zero or more nodes, partitioned into a root node and two possibly empty sets that are binary trees.  Thus, each node in a binary tree has at most two children, the left child and the right child. ~5~5~correct_complete~~5
11.5~11~5~ What is a recursive function? ~ A function that calls itself. ~ A function that calls itself to perform an opperation such as a factorial recursive function. ~5~5~correct_complete~~5
9.2~9~2~ What are the two main functions defined by a queue? ~ enqueue and dequeue ~ enqueue and dequeue ~5~5~correct_complete~~5
1.6~1~6~ Where are variables declared in a C plus plus program? ~ Variables can be declared anywhere in a program.  They can be declared inside a function -LRB- local variables -RRB- or outside the functions -LRB- global variables -RRB- ~ They are usually declared at the beginning before they can be used in the program.  They always contain a name and a data type. ~4~2~partially_correct~extra_info,missed_concept~3
12.3~12~3~ Order the following functions by their running time: n to the power of 2; log -LRB- log n -RRB- ; 2 to the power of -LRB- log n -RRB- ; n!; n to the power of 3. ~ log -LRB- log n -RRB- ; 2 to the power of -LRB- log n -RRB- ; n to the power of 2; n to the power of 3; n! ~ n to the power of 2; n!; n to the power of 3; 2 to the power of -LRB- log n -RRB- ; log -LRB- log n -RRB- ~0~0~wrong_related~missed_concept~2.25
11.7~11~7~ What is the difference between an array that is declared as static and one that is not? ~ The static arrays are intialized only once when the function is called. ~ A static array only has a specific size and it cannot grow.  Also static arrays cannot be accessed outside the program which created it. ~0~0~wrong_related~missed_concept~3
1.2~1~2~ What stages in the software life cycle are influenced by the testing stage? ~ The testing stage can influence both the coding stage -LRB- phase 5 -RRB- and the solution refinement stage -LRB- phase 7 -RRB- ~ 1-specification  2-design  3-risk analysis  4-verification  5-coding  6-testing  7-refining  8-production  9-maintenance ~0~0~wrong_related~~2.5
11.4~11~4~ What is a function signature? ~ The name of the function and the list of parameters, including their types. ~ function name and parameter are called function signature. ~3~3~partially_correct~partially_missed_concept,not_enough_info~5
5.1~5~1~ In one sentence, what is the main idea implemented by insertion sort? ~ Taking one array element at a time, from left to right, it inserts it in the right position among the already sorted elements on its left. ~ a comparison sort in which the sorted array is built one entry at a time ~3~3~partially_correct~~4
10.2~10~2~ What is the height of a tree? ~ The length of the longest path from the root to any of its leaves. ~ The height of a tree is in terms of the levels of its nodes such that, if the tree is empty its height is 0 otherwise its height is equal to the maximum level of its nodes. ~4~3~partially_correct~not_enough_info,partially_missed_concept~4.5
11.4~11~4~ What is a function signature? ~ The name of the function and the list of parameters, including their types. ~ A function signature is the return type of a function, its name, and the number and type of its parameters. ~5~5~correct_complete~~5
8.5~8~5~ Which implementation -LRB- array-based vs. list-based -RRB- is preferred, and why? ~ Link-based, because they are dynamic -LRB- no size constraints -RRB- ~ array based list is preferred because it can hold any size as long as u specify it. ~0~0~wrong_related~missed_concept~1
9.4~9~4~ How can you implement a queue with a list? ~ Keep the rear of the queue pointing to the tail of the linked list, so the enqueue operation is done at the end of the list, and keep the front of the queue pointing to the head of the linked list, so the dequeue operation is done at the beginning of the list. ~ by making the head of the list the beginning of the queue and the last listed item the insertion point of the queue ~5~2~correct_complete~~4.5
4.5~4~5~ How many dimensions need to be specified when passing a multi-dimensional array as an argument to a function? ~ All the dimensions, except the first one. ~ the size of the first dimension does not need to be specified, but all other dimensions do. ~5~5~correct_complete~~5
12.1~12~1~ What is a pointer? ~ The address of a location in memory. ~ it contains a object 's memory address ~5~5~correct_complete~~5
7.6~7~6~ What is the main advantage of a doubly-linked list over a basic linked list? ~ All the deletion and insertion operations can be performed in constant time, including those operations performed before a given location in the list or at the end of the list. ~ Gives faster times for some operations such as insertion and deletion ~3~4~partially_correct~missed_concept~5
12.2~12~2~ What is the experimental approach for measuring the running time of an algorithm? ~ Implement the algorithm and measure the physical running time. ~ You run a program with different data sizes, like 10 to the power of x. As you increase x and measure the completion speeds for the program, you can find patterns and attempt the measure the running time.  It is very important to keep the same software and hardware however, which makes experimental testing inferior to theoretical in the eyes of most. ~5~5~correct_complete~extra_info~4
10.1~10~1~ What is a tree? ~ A collection of nodes, which has a special node called root, and the rest of the nodes are partitioned into one or more disjoint sets, each set being a tree. ~" A data structure that contains a root, internal nodes and external nodes.  Each node references another node by means of pointers -LRB- pass-by-reference -RRB- .  The root is the ""base"" of the tree, it has no parents.  A ""leaf"" is a node at the end of the tree which points to NULL. "~4~4~partially_correct~not_enough_info,partially_missed_concept~5
12.3~12~3~ Order the following functions by their running time: n to the power of 2; log -LRB- log n -RRB- ; 2 to the power of -LRB- log n -RRB- ; n!; n to the power of 3. ~ log -LRB- log n -RRB- ; 2 to the power of -LRB- log n -RRB- ; n to the power of 2; n to the power of 3; n! ~ log -LRB- log -LRB- n -RRB- -RRB-  2 to the power of log -LRB- n -RRB- n to the power of 2 n to the power of 3 n! ~5~5~correct_complete~~5
2.7~2~7~ What is the role of a header-file? ~ To store a class interface, including data members and member function prototypes. ~ the header file has access to the C plus plus Standard Library and makes certain classes like class string work. ~1~0~wrong_related~missed_concept~1.5
9.4~9~4~ How can you implement a queue with a list? ~ Keep the rear of the queue pointing to the tail of the linked list, so the enqueue operation is done at the end of the list, and keep the front of the queue pointing to the head of the linked list, so the dequeue operation is done at the beginning of the list. ~ create a node with the input data, continue to add to the list. when dequeueing get the first elements data and set the next element in the list as the new first element ~4~5~partially_correct~partially_missed_concept~4
2.6~2~6~ What is the difference between a function prototype and a function definition? ~ A function prototype includes the function signature, i. e., the name of the function, the return type, and the parameters 's type.  The function definition includes the actual body of the function. ~ A function prototype describes the class 's public interface without providing how the function works.  A function definition contains the inner workings of the function. ~4~5~partially_correct~partially_missed_concept,contains_false_assertion~4.5
12.9~12~9~ How do you delete a node from a binary search tree? ~ Find the node, then replace it with the leftmost node from its right subtree -LRB- or the rightmost node from its left subtree -RRB- . ~ the deletion of a node depends upon if it has children and if it is an AVL binary search tree.  Assuming it is not an AVL tree, and the node being deleted has no children, you just set its pointer to null.  If it has a left child or a right child exclusively, that child replaces the deleted node, if it has two children, the left most child of the right sub tree -LRB- or right most child of the left subtree -RRB- will replace it ~5~5~correct_complete~extra_info~5
12.2~12~2~ What is the experimental approach for measuring the running time of an algorithm? ~ Implement the algorithm and measure the physical running time. ~ trying it with different sets of inputs, and measuring the amount of time that the algorithm actually takes. ~5~4~correct_complete~~5
8.3~8~3~ How can you implement a stack with an array? ~ Keep the top of the stack toward the end of the array, so the push and pop operations will add or remove elements from the right side of the array. ~ create an array and implement pointers that point to the next list item down and stack them up. ~2~1~partially_correct~confusing_wording,not_enough_info~2
8.2~8~2~ What are the two main functions defined by a stack? ~ push and pop ~ push and pop. ~5~5~correct_complete~~5
11.5~11~5~ What is a recursive function? ~ A function that calls itself. ~ A function that calls itself to perform a certain task ~5~5~correct_complete~~5
4.3~4~3~ How are arrays passed to functions? ~ by reference. ~ by refrence ~5~5~correct_complete~~5
10.5~10~5~ What is a binary search tree? ~ A binary tree that has the property that for any node the left child is smaller than the parent which in turn is smaller than the right child. ~ A tree which is split based on values.  This makes it very easy to search.  One can compare the desired value to the root, and if the root is greater than, we search the left side of the tree, if it is less than, we search the right side ... and do the same thing recursively. ~4~5~partially_correct~not_enough_info,other_wording~5
10.4~10~4~ What is a binary tree? ~ A tree for which the maximum number of children per node is two. ~ a tree where each node can have at most 2 children. ~5~5~correct_complete~~5
2.2~2~2~ What is the difference between a data member and a local variable inside a member function? ~ Data members can be accessed from any member functions inside the class defintion.  Local variables can only be accessed inside the member function that defines them. ~ A data member is globally accessible, while a local variable is only accessible inside the member function. ~4~3~partially_correct~contains_false_assertion~4.5
11.4~11~4~ What is a function signature? ~ The name of the function and the list of parameters, including their types. ~ the name of the function and the arguments passed to that function ~3~4~partially_correct~partially_missed_concept,not_enough_info~5
7.1~7~1~ What is a linked list? ~ A collection of elements that can be allocated dynamically. ~ linear collection of self-referential nodes connected by pointers. ~5~4~correct_complete~other_wording~4
9.5~9~5~ Which implementation -LRB- array-based vs. list-based -RRB- is preferred for a queue, and why? ~ Link-based, because they are dynamic -LRB- no size constraints -RRB- ~ list based is preferred because memory allocation is not an issue ~1~4~wrong_related~contains_false_assertion~5
3.2~3~2~ What is the scope of global variables? ~ File scope. ~ They can be accessed by any part of the program.  It can be referenced by any function that follows the declarations or definitions in the source file. ~5~4~correct_indirect~other_wording~5
11.6~11~6~ What is the alternative way to solve a problem that could be solved through recursive functions? ~ Through iteration. ~ iteratively ~5~5~correct_complete~~5
11.1~11~1~ What are the elements typically included in a class definition? ~ Function members and data members. ~ data members, class variables, and functions ~5~5~correct_complete~~5
3.4~3~4~ What is the main advantage associated with function arguments that are passed by reference? ~ It avoids making copies of large data structures when calling functions. ~ Gives access to the caller data directly, also it allows for modifying the data. ~3~2~partially_correct~partially_missed_concept~3.5
9.4~9~4~ How can you implement a queue with a list? ~ Keep the rear of the queue pointing to the tail of the linked list, so the enqueue operation is done at the end of the list, and keep the front of the queue pointing to the head of the linked list, so the dequeue operation is done at the beginning of the list. ~ Have a pointer to the last element in the list and then use enqueue to insert items there.  Link the first and last elements together to dequeue the list. ~4~2~partially_correct~confusing_wording~3.5
6.7~6~7~ What is a function pointer? ~ The address of the location in memory where the function code resides. ~ Function Pointers are pointers, i. e. variables, which point to the address of a function. ~4~3~partially_correct~not_enough_info~5
3.7~3~7~ What are the similarities between iteration and recursion? ~ They both involve repetition; they both have termination tests; they can both occur infinitely. ~ both need to have some kind of base case to tell when the loop needs to stop. ~3~2~partially_correct~missed_concept~3
4.4~4~4~ What is the difference between an array declared as static, and one that is not? ~ The arrays declared as static live throughout the life of the program; that is, they are initialized only once, when the function that declares the array it is first called. ~ When we declare it static the array is not destroyed after the function is over.  When an array is not declared as static, the array is created and initialized every time a function calls it. ~5~5~correct_complete~~5
4.3~4~3~ How are arrays passed to functions? ~ by reference. ~ Arrays are passed to functions by reference. ~5~5~correct_complete~~5
5.2~5~2~ In one sentence, what is the main idea implemented by selection sort? ~ Taking one array element at a time, from left to right, it identifies the minimum from the remaining elements and swaps it with the current element. ~ Find the minimum value in the list swap it with the value in the first position; repeat the steps above for remainder of the list -LRB- starting in the second position. ~5~5~correct_complete~~5
10.4~10~4~ What is a binary tree? ~ A tree for which the maximum number of children per node is two. ~ Starting at the root node, it branches off into one or two subsets that are binary subtrees of the root.  Each node has at most two children, the left child and the right child. ~5~5~correct_complete~~5
12.7~12~7~ What are the main operations associated with a stack? ~ push and pop ~ pop and push to remove an element and to insert an element ~5~5~correct_complete~~5
3.6~3~6~ When defining a recursive function, what are possible causes for infinite recursion? ~ If the recursion step is defined incorrectly, or if the base case is not included. ~ recursion refers to situations in which functions call themselves.  These types of functions are known as recursive functions.  That being said Infinite recursion occurs when the function is designed in such a way as to call it self forever without stopping possible causes ~2~0~partially_correct~extra_info,missed_concept~3
1.6~1~6~ Where are variables declared in a C plus plus program? ~ Variables can be declared anywhere in a program.  They can be declared inside a function -LRB- local variables -RRB- or outside the functions -LRB- global variables -RRB- ~ Variables are declared in the main function, before any operation is attempted with the variables. ~4~0~partially_correct~not_enough_info~2
11.3~11~3~ How are objects initialized when they are created? ~ By using constructors. ~ When the object is initialized, its constructor is called -LRB- whether one is provided or c plus plus assigns a default constructor -RRB- . ~5~5~correct_complete~missed_concept~5
1.6~1~6~ Where are variables declared in a C plus plus program? ~ Variables can be declared anywhere in a program.  They can be declared inside a function -LRB- local variables -RRB- or outside the functions -LRB- global variables -RRB- ~ in the very beginning of the program.  Before the main -LRB- -RRB- starts. ~0~0~wrong_related~shows_lack_of_knowledge~2
6.5~6~5~ What does the sizeof operator return? ~ The size in bytes of its operand. ~ The sizeof operator returns the size of the operand. ~5~3~correct_complete~~4
2.1~2~1~ What is typically included in a class definition? ~ Data members -LRB- attributes -RRB- and member functions. ~ data members and member functions. ~5~5~correct_complete~~5
6.1~6~1~ What is a pointer? ~ A variable that contains the address in memory of another variable. ~ a variable that contains the address of another variable ~5~5~correct_complete~~5
6.2~6~2~ What does the address -LRB- ADDRESS -RRB- operator return? ~ The memory address of its operand. ~ The address of the where the data is stored: address of b will return the address of b. ~5~5~correct_complete~confusing_wording~4.5
4.1~4~1~ What are the two different ways of specifying the length of an array? ~ In the array declaration, or by using an initializer list. ~ int n [10]; or or array of 10 integers and int n [arraySize] or or where arraySize is some positive integer defined by the user ~3~5~partially_correct~contains_false_assertion~4
5.1~5~1~ In one sentence, what is the main idea implemented by insertion sort? ~ Taking one array element at a time, from left to right, it inserts it in the right position among the already sorted elements on its left. ~ Starting with the first element in the array, each following element is put in place by determining if it is smaller or larger than the starting element. ~4~3~partially_correct~~4
12.4~12~4~ Briefly, how does selection sort work? ~ It selects the minimum from an array and places it on the first position, then it selects the minimum from the rest of the array and places it on the second position, and so forth. ~ Compare the largest element to the front element and swap data according to value if needed. ~0~3~wrong_related~missed_concept~4
12.8~12~8~ What is the Euler tour traversal of a tree? ~ A walk around the tree, starting with the root, where each node is seen three times: from the left, from below, from the right. ~ The Euler tour traverses through the tree in a rubber-band style shape. ~0~0~wrong_related~missed_concept~3.5
1.7~1~7~ What is the main difference between a while and a do ... while statement? ~ The block inside a do ... while statement will execute at least once. ~ The main difference between a do and a do ... while statement is in a do ... while statement is the statements in a do block are always executed atleast once.  The while statement will only execute if its condition is true. ~4~5~correct_complete~confusing_wording~5
12.5~12~5~ What is the advantage of linked lists over arrays? ~ Linked lists are dynamic structures, which allow for a variable number of elements to be stored. ~ linked lists do not have to have a specified size, they are easier to add to and remove from ~5~5~correct_complete~~5
3.6~3~6~ When defining a recursive function, what are possible causes for infinite recursion? ~ If the recursion step is defined incorrectly, or if the base case is not included. ~ omitting the base case or writing the recursive call so that it does not converge upon the base case. ~5~5~correct_complete~~5
6.2~6~2~ What does the address -LRB- ADDRESS -RRB- operator return? ~ The memory address of its operand. ~ The address -LRB- ADDRESS -RRB- operator returns the memory address of its operand. ~5~5~correct_complete~~5
1.4~1~4~ Where do C plus plus programs begin to execute? ~ At the main function. ~ main ~5~5~correct_complete~~5
8.1~8~1~ What is a stack? ~ A data structure that can store elements, which has the property that the last item added will be the first to be removed -LRB- or last-in-first-out -RRB- ~ A stack is an abstract data type that is based on the principle that the last element inserted into the stack will be the first element removed from the stack. ~5~5~correct_complete~~5
2.5~2~5~ How many constructors can be created for a class? ~ Unlimited number. ~ you can overload constructors as you need ~5~5~correct_indirect~other_wording~5
9.3~9~3~ How can you implement a queue with an array? ~ Use a circular array.  Keep the rear of the queue toward the end of the array, and the front toward the beginning, and allow the rear pointer to wrap around. ~ Utilizing indexes for the front and the back.  Front is 0 and as you add items the back index is incremented. ~3~2~partially_correct~not_enough_info~4
3.5~3~5~ How are overloaded functions differentiated by the compiler? ~ Based on the function signature.  When an overloaded function is called, the compiler will find the function whose signature is closest to the given function call. ~ The compiler selects the right function to execute from the number, types and order of arguments in the function call. ~5~5~correct_complete~~5
8.5~8~5~ Which implementation -LRB- array-based vs. list-based -RRB- is preferred, and why? ~ Link-based, because they are dynamic -LRB- no size constraints -RRB- ~ Linked list because it takes up less memory and is scalable ~2~3~partially_correct~not_enough_info,contains_false_assertion~3
2.7~2~7~ What is the role of a header-file? ~ To store a class interface, including data members and member function prototypes. ~ To provide information about the contents of a library.  It includes the definition of classes, declarations of functions, data types, and constants. ~5~5~correct_complete~~4.5
6.6~6~6~ What are the different ways to pass a pointer to a function? ~ There are four ways: nonconstant pointer to constant data, nonconstant pointer to nonconstant data, constant pointer to constant data, constant pointer to nonconstant data. ~ Nonconstant pointer to nonconstant data  Nonconstant pointer to constant data  Constant pointer to nonconstant data  Constant pointer to constant data ~5~5~correct_complete~~5
